{
  "presets": [
    [
      "@babel/preset-env",
      {
        "targets": {
          "node": "18"
        },
        "useBuiltIns": "usage",
        "corejs": "3.6.5"
      }
    ]
  ],
  "env": {
    "development": {
      "sourceMaps": "inline",
      "retainLines": true
    }
  },
  "plugins": [
    ["module-resolver", {
      "alias": {
        "@mailer": "./src/mailer",
        "@helpers": "./src/helpers",
        "@mongodb/model": "./src/database/mongodb/model",
        "@mongodb/util": "./src/database/mongodb/util"
        // "@oracle": "./src/database/oracle",
        // "@database": "./src/database",
        // "@service": "./src/service"
      }
    }]
  ],
  "ignore": [
    "**/*.test.js"
  ]
}